{
    "edit_format": "onoff",
    "edit_format_params": "",
    "data_type": "string",
    "sub_options": [],
    "validation_class": "",
    "validation_method": "",
    "default_value": "0",
    "relations": {
        "stats": 206
    }
}