{
    "template": "notice_cookies",
    "description": "Add the Matomo Opt In Button to Cookie Notice",
    "execution_order": 10,
    "enabled": true,
    "action": "str_replace",
    "find": "<xf:button icon=\"confirm\" href=\"{{ link('account/dismiss-notice', null, {'notice_id': $notice.notice_id}) }}\" class=\"js-noticeDismiss button--notice\">{{ phrase('accept') }}</xf:button>\n\t<xf:button href=\"{{ link('help/cookies') }}\" class=\"button--notice\">{{ phrase('learn_more...') }}</xf:button>",
    "replace": "<xf:if is=\"$xf.options.at_mai_domain && $xf.options.at_mai_setSiteId\">\n\t<xf:if is=\"$xf.options.at_mai_GDPR\">\n\t\t<xf:include template=\"at_mai_optIn\"  />\n\t<xf:else />\n\t\t$0\n\t</xf:if>\n</xf:if>"
}